example_t20_2stg_bootloader/la0_waveform.vcd
#0 $dumpon
$date today $end
$timescale 1 ns $end
$scope module top $end
$var wire 1 0 io_pllLocked $end
$var wire 1 1 io_asyncResetn $end
$var wire 1 2 io_pllResetn $end
$var wire 1 3 io_socReset $end
$var wire 32 4 u_sap/u_EfxSapphireSoc/system_cores_0_logic_cpu/dmem_addr $end
$var wire 32 5 u_sap/u_EfxSapphireSoc/system_cores_0_logic_cpu/dmem_rdata $end
$var wire 4 6 u_sap/u_EfxSapphireSoc/system_cores_0_logic_cpu/dmem_web $end
$var wire 32 7 u_sap/u_EfxSapphireSoc/system_cores_0_logic_cpu/dmem_wdata $end
$var wire 1 8 u_sap/u_EfxSapphireSoc/system_cores_0_logic_cpu/u_trinita_v1_core/u_fmrv32im_memory/dmem_wr $end
$var wire 32 9 u_sap/u_EfxSapphireSoc/system_cores_0_logic_cpu/u_trinita_v1_core/u_fmrv32im_memory/imem_wadr $end
$var wire 32 a u_sap/u_EfxSapphireSoc/system_cores_0_logic_cpu/u_trinita_v1_core/u_fmrv32im_memory/imem_wdout $end
$var wire 1 b u_sap/u_EfxSapphireSoc/system_cores_0_logic_cpu/u_trinita_v1_core/u_fmrv32im_memory/sys_imem $end
$var wire 4 c u_sap/u_EfxSapphireSoc/system_cores_0_logic_cpu/u_trinita_v1_core/u_fmrv32im_memory/imem_web $end
$var wire 1 d u_sap/u_EfxSapphireSoc/system_cores_0_logic_cpu/u_trinita_v1_core/u_fmrv32im_memory/imem_wr $end
$var wire 32 e u_sap/u_EfxSapphireSoc/system_cores_0_logic_cpu/u_trinita_v1_core/u_fmrv32im_memory/imem_do $end
$var wire 4 f u_sap/u_EfxSapphireSoc/system_cores_0_logic_cpu/u_trinita_v1_core/u_fmrv32im_memory/imem_st $end
$var wire 32 10 u_sap/u_EfxSapphireSoc/system_cores_0_logic_cpu/u_trinita_v1_core/u_fmrv32im_memory/imem_di $end
$var wire 32 11 u_sap/u_EfxSapphireSoc/system_cores_0_logic_cpu/u_trinita_v1_core/u_fmrv32im_memory/imem_ad $end
$var wire 32 12 u_sap/u_EfxSapphireSoc/system_cores_0_logic_cpu/u_trinita_v1_core/u_fmrv32im_memory/imem_dout $end
$var wire 1 13 u_sap/u_EfxSapphireSoc/system_cores_0_logic_cpu/u_trinita_v1_core/u_fmrv32im_memory/am_imem $end
$var wire 32 14 u_sap/u_EfxSapphireSoc/system_cores_0_logic_cpu/u_trinita_v1_core/u_fmrv32im_memory/imem_wdin $end
$var wire 32 15 u_sap/u_EfxSapphireSoc/system_cores_0_logic_cpu/u_trinita_v1_core/u_fmrv32im_memory/imem_adr $end
$var wire 1 16 u_sap/u_EfxSapphireSoc/system_cores_0_logic_cpu/u_trinita_v1_core/u_fmrv32im_memory/sel_inst_r $end
$var wire 1 17 u_sap/u_EfxSapphireSoc/system_cores_0_logic_cpu/u_trinita_v1_core/u_fmrv32im_memory/sel_inst_w $end
$var wire 1 18 u_sap/u_EfxSapphireSoc/system_cores_0_logic_cpu/u_trinita_v1_core/u_fmrv32im_memory/D_MEM_EXCPT $end
$var wire 1 19 u_sap/u_EfxSapphireSoc/system_cores_0_logic_cpu/u_trinita_v1_core/u_fmrv32im_memory/D_MEM_VALID $end
$var wire 32 1a u_sap/u_EfxSapphireSoc/system_cores_0_logic_cpu/u_trinita_v1_core/u_fmrv32im_memory/D_MEM_ADDR $end
$var wire 32 1b u_sap/u_EfxSapphireSoc/system_cores_0_logic_cpu/u_trinita_v1_core/u_fmrv32im_memory/D_MEM_WDATA $end
$var wire 32 1c u_sap/u_EfxSapphireSoc/system_cores_0_logic_cpu/u_trinita_v1_core/u_fmrv32im_memory/D_MEM_RDATA $end
$var wire 1 1d u_sap/u_EfxSapphireSoc/system_cores_0_logic_cpu/u_trinita_v1_core/u_fmrv32im_memory/D_MEM_READY $end
$var wire 4 1e u_sap/u_EfxSapphireSoc/system_cores_0_logic_cpu/u_trinita_v1_core/u_fmrv32im_memory/D_MEM_WSTB $end
$upscope $end
$enddefinitions $end
#0
$dumpvars
10
11
12
03
b00000000000000000000000000000000 4
b00110011001100100011000100110000 5
b0000 6
b00000000000000000000000000000000 7
08
b00000000000000000000000000000000 9
b00000000000000000000000000000000 a
1b
b0000 c
0d
b00000000010001010010010100000011 e
b0000 f
b00000000000000000000000000000000 10
b00000000000000000000000000000000 11
b00000000010001010010010100000011 12
113
b00000000000000000000000000000000 14
b11111001000000000111001011011100 15
116
017
018
019
b11111000000000010100000000000100 1a
b00000000000000000000000000000000 1b
b00110011001100100011000100110000 1c
01d
b0000 1e
$end
#1
b00000001000001010101010100010011 e
b00000001000001010101010100010011 12
b11111001000000000111001011100000 15
b00000000000000000000000000000000 1a
#2
b00000000000000001000000001100111 e
b00000000000000001000000001100111 12
b11111001000000000111001011100100 15
#3
b11111111000000010000000100010011 e
b11111111000000010000000100010011 12
b11111001000000000111001101010000 15
016
b11111001000010000111110000100100 1a
#4
b11111110000001010000110011100011 e
b11111110000001010000110011100011 12
b11111001000000000111001101010100 15
116
b00000000000000000000000000000000 1a
#5
b00000000000001000010010100000011 e
b00000000000001000010010100000011 12
b11111001000000000111001101001000 15
016
b11111000000000010100000000000000 1a
#6
b00000000000001000000010100010011 e
b00000000000001000000010100010011 12
b11111001000000000111001101001100 15
116
#7
b11111000110111111111000011101111 e
b11111000110111111111000011101111 12
b11111001000000000111001101010000 15
b00000000000000000000000000000000 1a
#8
b11111110000001010000110011100011 e
b11111110000001010000110011100011 12
b11111001000000000111001011011000 15
016
#9
b00000000010001010010010100000011 e
b00000000010001010010010100000011 12
116
b11111000000000010100000000000100 1a
#15
b11111001000000000111001011011100 15
#16
b00000001000001010101010100010011 e
b00000001000001010101010100010011 12
b11111001000000000111001011100000 15
b00000000000000000000000000000000 1a
#17
b00000000000000001000000001100111 e
b00000000000000001000000001100111 12
b11111001000000000111001011100100 15
#18
b11111111000000010000000100010011 e
b11111111000000010000000100010011 12
b11111001000000000111001101010000 15
016
b11111001000010000111110000100100 1a
#19
b11111110000001010000110011100011 e
b11111110000001010000110011100011 12
b11111001000000000111001101010100 15
116
b00000000000000000000000000000000 1a
#20
b00000000000001000010010100000011 e
b00000000000001000010010100000011 12
b11111001000000000111001101001000 15
016
b11111000000000010100000000000000 1a
#21
b00000000000001000000010100010011 e
b00000000000001000000010100010011 12
b11111001000000000111001101001100 15
116
#22
b11111000110111111111000011101111 e
b11111000110111111111000011101111 12
b11111001000000000111001101010000 15
b00000000000000000000000000000000 1a
#23
b11111110000001010000110011100011 e
b11111110000001010000110011100011 12
b11111001000000000111001011011000 15
016
#24
b00000000010001010010010100000011 e
b00000000010001010010010100000011 12
116
b11111000000000010100000000000100 1a
#30
b11111001000000000111001011011100 15
#31
b00000001000001010101010100010011 e
b00000001000001010101010100010011 12
b11111001000000000111001011100000 15
b00000000000000000000000000000000 1a
#32
b00000000000000001000000001100111 e
b00000000000000001000000001100111 12
b11111001000000000111001011100100 15
#33
b11111111000000010000000100010011 e
b11111111000000010000000100010011 12
b11111001000000000111001101010000 15
016
b11111001000010000111110000100100 1a
#34
b11111110000001010000110011100011 e
b11111110000001010000110011100011 12
b11111001000000000111001101010100 15
116
b00000000000000000000000000000000 1a
#35
b00000000000001000010010100000011 e
b00000000000001000010010100000011 12
b11111001000000000111001101001000 15
016
b11111000000000010100000000000000 1a
#36
b00000000000001000000010100010011 e
b00000000000001000000010100010011 12
b11111001000000000111001101001100 15
116
#37
b11111000110111111111000011101111 e
b11111000110111111111000011101111 12
b11111001000000000111001101010000 15
b00000000000000000000000000000000 1a
#38
b11111110000001010000110011100011 e
b11111110000001010000110011100011 12
b11111001000000000111001011011000 15
016
#39
b00000000010001010010010100000011 e
b00000000010001010010010100000011 12
116
b11111000000000010100000000000100 1a
#45
b11111001000000000111001011011100 15
#46
b00000001000001010101010100010011 e
b00000001000001010101010100010011 12
b11111001000000000111001011100000 15
b00000000000000000000000000000000 1a
#47
b00000000000000001000000001100111 e
b00000000000000001000000001100111 12
b11111001000000000111001011100100 15
#48
b11111111000000010000000100010011 e
b11111111000000010000000100010011 12
b11111001000000000111001101010000 15
016
b11111001000010000111110000100100 1a
#49
b11111110000001010000110011100011 e
b11111110000001010000110011100011 12
b11111001000000000111001101010100 15
116
b00000000000000000000000000000000 1a
#50
b00000000000001000010010100000011 e
b00000000000001000010010100000011 12
b11111000000000010100000000000000 1a
#56
b11111001000000000111001101011000 15
#57
b00001111111101010111010100010011 e
b00001111111101010111010100010011 12
b11111001000000000111001101011100 15
b00000000000000000000000000000000 1a
#58
b11111001000010000111110001000000 4
b11111001000000000111011101000100 5
b00000000110000010010000010000011 e
b00000000110000010010000010000011 12
b11111001000000000111001101100000 15
119
b11111001000010000111110001000000 1a
b11111001000000000111011101000100 1c
11d
#59
b11111001000010000111110000111100 4
b00000000000000000100101101101000 5
b00000000100000010010010000000011 e
b00000000100000010010010000000011 12
b11111001000000000111001101100100 15
b11111001000010000111110000111100 1a
b00000000000000000100101101101000 1c
#60
b00000000000000000000000000000000 4
b00110011001100100011000100110000 5
b00000001000000010000000100010011 e
b00000001000000010000000100010011 12
b11111001000000000111001101101000 15
019
b11111001000010000111110001000100 1a
b00110011001100100011000100110000 1c
01d
#61
b00000000000000001000000001100111 e
b00000000000000001000000001100111 12
b11111001000000000111001101101100 15
b00000000000000000000000000000000 1a
#62
b11111111000000010000000100010011 e
b11111111000000010000000100010011 12
b11111001000000000111011101000100 15
016
b11111001000010000111110000110100 1a
#63
b00000000000101001000100100010011 e
b00000000000101001000100100010011 12
b11111001000000000111011101001000 15
116
b11111001000000000100101101101001 1a
#64
b11111001000000000100101101101000 9
b1111 c
1d
b00000000101001001000000000100011 e
b1111 f
b11111001000000000100101101101000 11
b00000000101001001000000000100011 12
b11111001000000000111011101001100 15
117
119
b11111001000000000100101101101000 1a
11d
b0001 1e
#65
b00000000000000000000000000000000 9
b0000 c
0d
b00000000100100000000011110010011 e
b0000 f
b00000000000000000000000000000000 11
b00000000100100000000011110010011 12
b11111001000000000111011101010000 15
017
019
b00000000000000000000000000001001 1a
01d
b0000 1e
#66
b11111110100001111110000011100011 e
b11111110100001111110000011100011 12
b11111001000000000111011101010100 15
b00000000000000000000000000000000 1a
#67
b11111011010111111111000001101111 e
b11111011010111111111000001101111 12
b11111001000000000111011100110000 15
016
#68
b00000000000101000000010000010011 e
b00000000000101000000010000010011 12
b11111001000000000111011100110100 15
116
b00000000000000000100101101101001 1a
#69
b00000000000010010000010010010011 e
b00000000000010010000010010010011 12
b11111001000000000111011100111000 15
b11111001000000000100101101101001 1a
#70
b00000011010001000111000001100011 e
b00000011010001000111000001100011 12
b11111001000000000111011100111100 15
b00000000000000000000000000000000 1a
#71
b00000000000010011000010100010011 e
b00000000000010011000010100010011 12
b11111001000000000111011101000000 15
b11111000000000010100000000000000 1a
#72
b10111110010111111111000011101111 e
b10111110010111111111000011101111 12
b11111001000000000111011101000100 15
b00000000000000000000000000000000 1a
#73
b00000000000101001000100100010011 e
b00000000000101001000100100010011 12
b11111001000000000111001100100100 15
016
b11111001000000000100101101101010 1a
#74
b11111111000000010000000100010011 e
b11111111000000010000000100010011 12
b11111001000000000111001100101000 15
116
b11111001000010000111110000110100 1a
#75
b11111001000010000111110001000000 4
b11111001000000000111011101000100 5
b1111 6
b11111001000000000111011101000100 7
18
b00000000000100010010011000100011 e
b00000000000100010010011000100011 12
b11111001000000000111001100101100 15
119
b11111001000010000111110001000000 1a
b11111001000000000111011101000100 1b
b11111001000000000111011101000100 1c
11d
b1111 1e
#76
b11111001000010000111110000111100 4
b00000000000000000100101101101000 5
b00000000000000000100101101101001 7
b00000000100000010010010000100011 e
b00000000100000010010010000100011 12
b11111001000000000111001100110000 15
b11111001000010000111110000111100 1a
b00000000000000000100101101101001 1b
b00000000000000000100101101101000 1c
#77
b00000000000000000000000000000000 4
b00110011001100100011000100110000 5
b0000 6
b00000000000000000000000000000000 7
08
b00000000000001010000010000010011 e
b00000000000001010000010000010011 12
b11111001000000000111001100110100 15
019
b11111000000000010100000000000000 1a
b00000000000000000000000000000000 1b
b00110011001100100011000100110000 1c
01d
b0000 1e
#78
b00000000000001000000010100010011 e
b00000000000001000000010100010011 12
b11111001000000000111001100111000 15
#79
b11111001000111111111000011101111 e
b11111001000111111111000011101111 12
b11111001000000000111001100111100 15
b00000000000000000000000000000000 1a
#80
b11111110000001010000110011100011 e
b11111110000001010000110011100011 12
b11111001000000000111001011001000 15
016
#81
b00000000010001010010010100000011 e
b00000000010001010010010100000011 12
116
b11111000000000010100000000000100 1a
#87
b11111001000000000111001011001100 15
#88
b00000001000001010001010100010011 e
b00000001000001010001010100010011 12
b11111001000000000111001011010000 15
b00000000000000000000000000000000 1a
#89
b00000001000001010101010100010011 e
b00000001000001010101010100010011 12
b11111001000000000111001011010100 15
#90
b00000000000000001000000001100111 e
b00000000000000001000000001100111 12
b11111001000000000111001011011000 15
#91
b00000000010001010010010100000011 e
b00000000010001010010010100000011 12
b11111001000000000111001100111100 15
016
b00000000000000000000000100000100 1a
#92
b11111110000001010000110011100011 e
b11111110000001010000110011100011 12
b11111001000000000111001101000000 15
116
b00000000000000000000000000000000 1a
#93
b00100000000000000000011110010011 e
b00100000000000000000011110010011 12
b11111001000000000111001101000100 15
b00000000000000000000001000000000 1a
#94
b00000000111101000010000000100011 e
b00000000111101000010000000100011 12
b11111001000000000111001101001000 15
b11111000000000010100000000000000 1a
b00000000000000000000001000000000 1b
b1111 1e
#95
b00000000000001000000010100010011 e
b00000000000001000000010100010011 12
b11111001000000000111001101001100 15
b00000000000000000000000000000000 1b
b0000 1e
#96
b11111000110111111111000011101111 e
b11111000110111111111000011101111 12
b11111001000000000111001101010000 15
b00000000000000000000000000000000 1a
#97
b11111110000001010000110011100011 e
b11111110000001010000110011100011 12
b11111001000000000111001011011000 15
016
#98
b00000000010001010010010100000011 e
b00000000010001010010010100000011 12
116
b11111000000000010100000000000100 1a
#104
b11111001000000000111001011011100 15
#105
b00000001000001010101010100010011 e
b00000001000001010101010100010011 12
b11111001000000000111001011100000 15
b00000000000000000000000000000000 1a
#106
b00000000000000001000000001100111 e
b00000000000000001000000001100111 12
b11111001000000000111001011100100 15
#107
b11111111000000010000000100010011 e
b11111111000000010000000100010011 12
b11111001000000000111001101010000 15
016
b11111001000010000111110000100100 1a
#108
b11111110000001010000110011100011 e
b11111110000001010000110011100011 12
b11111001000000000111001101010100 15
116
b00000000000000000000000000000000 1a
#109
b00000000000001000010010100000011 e
b00000000000001000010010100000011 12
b11111001000000000111001101001000 15
016
b11111000000000010100000000000000 1a
#110
b00000000000001000000010100010011 e
b00000000000001000000010100010011 12
b11111001000000000111001101001100 15
116
#111
b11111000110111111111000011101111 e
b11111000110111111111000011101111 12
b11111001000000000111001101010000 15
b00000000000000000000000000000000 1a
#112
b11111110000001010000110011100011 e
b11111110000001010000110011100011 12
b11111001000000000111001011011000 15
016
#113
b00000000010001010010010100000011 e
b00000000010001010010010100000011 12
116
b11111000000000010100000000000100 1a
#119
b11111001000000000111001011011100 15
#120
b00000001000001010101010100010011 e
b00000001000001010101010100010011 12
b11111001000000000111001011100000 15
b00000000000000000000000000000000 1a
#121
b00000000000000001000000001100111 e
b00000000000000001000000001100111 12
b11111001000000000111001011100100 15
#122
b11111111000000010000000100010011 e
b11111111000000010000000100010011 12
b11111001000000000111001101010000 15
016
b11111001000010000111110000100100 1a
#123
b11111110000001010000110011100011 e
b11111110000001010000110011100011 12
b11111001000000000111001101010100 15
116
b00000000000000000000000000000000 1a
#124
b00000000000001000010010100000011 e
b00000000000001000010010100000011 12
b11111001000000000111001101001000 15
016
b11111000000000010100000000000000 1a
#125
b00000000000001000000010100010011 e
b00000000000001000000010100010011 12
b11111001000000000111001101001100 15
116
#126
b11111000110111111111000011101111 e
b11111000110111111111000011101111 12
b11111001000000000111001101010000 15
b00000000000000000000000000000000 1a
#127
b11111110000001010000110011100011 e
b11111110000001010000110011100011 12
b11111001000000000111001011011000 15
016
#128
b00000000010001010010010100000011 e
b00000000010001010010010100000011 12
116
b11111000000000010100000000000100 1a
#134
b11111001000000000111001011011100 15
#135
b00000001000001010101010100010011 e
b00000001000001010101010100010011 12
b11111001000000000111001011100000 15
b00000000000000000000000000000000 1a
#136
b00000000000000001000000001100111 e
b00000000000000001000000001100111 12
b11111001000000000111001011100100 15
#137
b11111111000000010000000100010011 e
b11111111000000010000000100010011 12
b11111001000000000111001101010000 15
016
b11111001000010000111110000100100 1a
#138
b11111110000001010000110011100011 e
b11111110000001010000110011100011 12
b11111001000000000111001101010100 15
116
b00000000000000000000000000000000 1a
#139
b00000000000001000010010100000011 e
b00000000000001000010010100000011 12
b11111001000000000111001101001000 15
016
b11111000000000010100000000000000 1a
#140
b00000000000001000000010100010011 e
b00000000000001000000010100010011 12
b11111001000000000111001101001100 15
116
#141
b11111000110111111111000011101111 e
b11111000110111111111000011101111 12
b11111001000000000111001101010000 15
b00000000000000000000000000000000 1a
#142
b11111110000001010000110011100011 e
b11111110000001010000110011100011 12
b11111001000000000111001011011000 15
016
#143
b00000000010001010010010100000011 e
b00000000010001010010010100000011 12
116
b11111000000000010100000000000100 1a
#149
b11111001000000000111001011011100 15
#150
b00000001000001010101010100010011 e
b00000001000001010101010100010011 12
b11111001000000000111001011100000 15
b00000000000000000000000000000000 1a
#151
b00000000000000001000000001100111 e
b00000000000000001000000001100111 12
b11111001000000000111001011100100 15
#152
b11111111000000010000000100010011 e
b11111111000000010000000100010011 12
b11111001000000000111001101010000 15
016
b11111001000010000111110000100100 1a
#153
b11111110000001010000110011100011 e
b11111110000001010000110011100011 12
b11111001000000000111001101010100 15
116
b00000000000000000000000000000000 1a
#154
b00000000000001000010010100000011 e
b00000000000001000010010100000011 12
b11111001000000000111001101001000 15
016
b11111000000000010100000000000000 1a
#155
b00000000000001000000010100010011 e
b00000000000001000000010100010011 12
b11111001000000000111001101001100 15
116
#156
b11111000110111111111000011101111 e
b11111000110111111111000011101111 12
b11111001000000000111001101010000 15
b00000000000000000000000000000000 1a
#157
b11111110000001010000110011100011 e
b11111110000001010000110011100011 12
b11111001000000000111001011011000 15
016
#158
b00000000010001010010010100000011 e
b00000000010001010010010100000011 12
116
b11111000000000010100000000000100 1a
#164
b11111001000000000111001011011100 15
#165
b00000001000001010101010100010011 e
b00000001000001010101010100010011 12
b11111001000000000111001011100000 15
b00000000000000000000000000000000 1a
#166
b00000000000000001000000001100111 e
b00000000000000001000000001100111 12
b11111001000000000111001011100100 15
#167
b11111111000000010000000100010011 e
b11111111000000010000000100010011 12
b11111001000000000111001101010000 15
016
b11111001000010000111110000100100 1a
#168
b11111110000001010000110011100011 e
b11111110000001010000110011100011 12
b11111001000000000111001101010100 15
116
b00000000000000000000000000000000 1a
#169
b00000000000001000010010100000011 e
b00000000000001000010010100000011 12
b11111000000000010100000000000000 1a
#175
b11111001000000000111001101011000 15
#176
b00001111111101010111010100010011 e
b00001111111101010111010100010011 12
b11111001000000000111001101011100 15
b00000000000000000000000000000000 1a
#177
b11111001000010000111110001000000 4
b11111001000000000111011101000100 5
b00000000110000010010000010000011 e
b00000000110000010010000010000011 12
b11111001000000000111001101100000 15
119
b11111001000010000111110001000000 1a
b11111001000000000111011101000100 1c
11d
#178
b11111001000010000111110000111100 4
b00000000000000000100101101101001 5
b00000000100000010010010000000011 e
b00000000100000010010010000000011 12
b11111001000000000111001101100100 15
b11111001000010000111110000111100 1a
b00000000000000000100101101101001 1c
#179
b00000000000000000000000000000000 4
b00110011001100100011000100110000 5
b00000001000000010000000100010011 e
b00000001000000010000000100010011 12
b11111001000000000111001101101000 15
019
b11111001000010000111110001000100 1a
b00110011001100100011000100110000 1c
01d
#180
b00000000000000001000000001100111 e
b00000000000000001000000001100111 12
b11111001000000000111001101101100 15
b00000000000000000000000000000000 1a
#181
b11111111000000010000000100010011 e
b11111111000000010000000100010011 12
b11111001000000000111011101000100 15
016
b11111001000010000111110000110100 1a
#182
b00000000000101001000100100010011 e
b00000000000101001000100100010011 12
b11111001000000000111011101001000 15
116
b11111001000000000100101101101010 1a
#183
b11111001000000000100101101101001 9
b1111 c
1d
b00000000101001001000000000100011 e
b1111 f
b11111001000000000100101101101001 11
b00000000101001001000000000100011 12
b11111001000000000111011101001100 15
117
119
b11111001000000000100101101101001 1a
11d
b0010 1e
#184
b00000000000000000000000000000000 9
b0000 c
0d
b00000000100100000000011110010011 e
b0000 f
b00000000000000000000000000000000 11
b00000000100100000000011110010011 12
b11111001000000000111011101010000 15
017
019
b00000000000000000000000000001001 1a
01d
b0000 1e
#185
b11111110100001111110000011100011 e
b11111110100001111110000011100011 12
b11111001000000000111011101010100 15
b00000000000000000000000000000000 1a
#186
b11111011010111111111000001101111 e
b11111011010111111111000001101111 12
b11111001000000000111011100110000 15
016
#187
b00000000000101000000010000010011 e
b00000000000101000000010000010011 12
b11111001000000000111011100110100 15
116
b00000000000000000100101101101010 1a
#188
b00000000000010010000010010010011 e
b00000000000010010000010010010011 12
b11111001000000000111011100111000 15
b11111001000000000100101101101010 1a
#189
b00000011010001000111000001100011 e
b00000011010001000111000001100011 12
b11111001000000000111011100111100 15
b00000000000000000000000000000000 1a
#190
b00000000000010011000010100010011 e
b00000000000010011000010100010011 12
b11111001000000000111011101000000 15
b11111000000000010100000000000000 1a
#191
b10111110010111111111000011101111 e
b10111110010111111111000011101111 12
b11111001000000000111011101000100 15
b00000000000000000000000000000000 1a
#192
b00000000000101001000100100010011 e
b00000000000101001000100100010011 12
b11111001000000000111001100100100 15
016
b11111001000000000100101101101011 1a
#193
b11111111000000010000000100010011 e
b11111111000000010000000100010011 12
b11111001000000000111001100101000 15
116
b11111001000010000111110000110100 1a
#194
b11111001000010000111110001000000 4
b11111001000000000111011101000100 5
b1111 6
b11111001000000000111011101000100 7
18
b00000000000100010010011000100011 e
b00000000000100010010011000100011 12
b11111001000000000111001100101100 15
119
b11111001000010000111110001000000 1a
b11111001000000000111011101000100 1b
b11111001000000000111011101000100 1c
11d
b1111 1e
#195
b11111001000010000111110000111100 4
b00000000000000000100101101101001 5
b00000000000000000100101101101010 7
b00000000100000010010010000100011 e
b00000000100000010010010000100011 12
b11111001000000000111001100110000 15
b11111001000010000111110000111100 1a
b00000000000000000100101101101010 1b
b00000000000000000100101101101001 1c
#196
b00000000000000000000000000000000 4
b00110011001100100011000100110000 5
b0000 6
b00000000000000000000000000000000 7
08
b00000000000001010000010000010011 e
b00000000000001010000010000010011 12
b11111001000000000111001100110100 15
019
b11111000000000010100000000000000 1a
b00000000000000000000000000000000 1b
b00110011001100100011000100110000 1c
01d
b0000 1e
#197
b00000000000001000000010100010011 e
b00000000000001000000010100010011 12
b11111001000000000111001100111000 15
#198
b11111001000111111111000011101111 e
b11111001000111111111000011101111 12
b11111001000000000111001100111100 15
b00000000000000000000000000000000 1a
#199
b11111110000001010000110011100011 e
b11111110000001010000110011100011 12
b11111001000000000111001011001000 15
016
#200
b00000000010001010010010100000011 e
b00000000010001010010010100000011 12
116
b11111000000000010100000000000100 1a
#206
b11111001000000000111001011001100 15
#207
b00000001000001010001010100010011 e
b00000001000001010001010100010011 12
b11111001000000000111001011010000 15
b00000000000000000000000000000000 1a
#208
b00000001000001010101010100010011 e
b00000001000001010101010100010011 12
b11111001000000000111001011010100 15
#209
b00000000000000001000000001100111 e
b00000000000000001000000001100111 12
b11111001000000000111001011011000 15
#210
b00000000010001010010010100000011 e
b00000000010001010010010100000011 12
b11111001000000000111001100111100 15
016
b00000000000000000000000100000100 1a
#211
b11111110000001010000110011100011 e
b11111110000001010000110011100011 12
b11111001000000000111001101000000 15
116
b00000000000000000000000000000000 1a
#212
b00100000000000000000011110010011 e
b00100000000000000000011110010011 12
b11111001000000000111001101000100 15
b00000000000000000000001000000000 1a
#213
b00000000111101000010000000100011 e
b00000000111101000010000000100011 12
b11111001000000000111001101001000 15
b11111000000000010100000000000000 1a
b00000000000000000000001000000000 1b
b1111 1e
#214
b00000000000001000000010100010011 e
b00000000000001000000010100010011 12
b11111001000000000111001101001100 15
b00000000000000000000000000000000 1b
b0000 1e
#215
b11111000110111111111000011101111 e
b11111000110111111111000011101111 12
b11111001000000000111001101010000 15
b00000000000000000000000000000000 1a
#216
b11111110000001010000110011100011 e
b11111110000001010000110011100011 12
b11111001000000000111001011011000 15
016
#217
b00000000010001010010010100000011 e
b00000000010001010010010100000011 12
116
b11111000000000010100000000000100 1a
#223
b11111001000000000111001011011100 15
#224
b00000001000001010101010100010011 e
b00000001000001010101010100010011 12
b11111001000000000111001011100000 15
b00000000000000000000000000000000 1a
#225
b00000000000000001000000001100111 e
b00000000000000001000000001100111 12
b11111001000000000111001011100100 15
#226
b11111111000000010000000100010011 e
b11111111000000010000000100010011 12
b11111001000000000111001101010000 15
016
b11111001000010000111110000100100 1a
#227
b11111110000001010000110011100011 e
b11111110000001010000110011100011 12
b11111001000000000111001101010100 15
116
b00000000000000000000000000000000 1a
#228
b00000000000001000010010100000011 e
b00000000000001000010010100000011 12
b11111001000000000111001101001000 15
016
b11111000000000010100000000000000 1a
#229
b00000000000001000000010100010011 e
b00000000000001000000010100010011 12
b11111001000000000111001101001100 15
116
#230
b11111000110111111111000011101111 e
b11111000110111111111000011101111 12
b11111001000000000111001101010000 15
b00000000000000000000000000000000 1a
#231
b11111110000001010000110011100011 e
b11111110000001010000110011100011 12
b11111001000000000111001011011000 15
016
#232
b00000000010001010010010100000011 e
b00000000010001010010010100000011 12
116
b11111000000000010100000000000100 1a
#238
b11111001000000000111001011011100 15
#239
b00000001000001010101010100010011 e
b00000001000001010101010100010011 12
b11111001000000000111001011100000 15
b00000000000000000000000000000000 1a
#240
b00000000000000001000000001100111 e
b00000000000000001000000001100111 12
b11111001000000000111001011100100 15
#241
b11111111000000010000000100010011 e
b11111111000000010000000100010011 12
b11111001000000000111001101010000 15
016
b11111001000010000111110000100100 1a
#242
b11111110000001010000110011100011 e
b11111110000001010000110011100011 12
b11111001000000000111001101010100 15
116
b00000000000000000000000000000000 1a
#243
b00000000000001000010010100000011 e
b00000000000001000010010100000011 12
b11111001000000000111001101001000 15
016
b11111000000000010100000000000000 1a
#244
b00000000000001000000010100010011 e
b00000000000001000000010100010011 12
b11111001000000000111001101001100 15
116
#245
b11111000110111111111000011101111 e
b11111000110111111111000011101111 12
b11111001000000000111001101010000 15
b00000000000000000000000000000000 1a
#246
b11111110000001010000110011100011 e
b11111110000001010000110011100011 12
b11111001000000000111001011011000 15
016
#247
b00000000010001010010010100000011 e
b00000000010001010010010100000011 12
116
b11111000000000010100000000000100 1a
#253
b11111001000000000111001011011100 15
#254
b00000001000001010101010100010011 e
b00000001000001010101010100010011 12
b11111001000000000111001011100000 15
b00000000000000000000000000000000 1a
#255
b00000000000000001000000001100111 e
b00000000000000001000000001100111 12
b11111001000000000111001011100100 15
#256
b11111111000000010000000100010011 e
b11111111000000010000000100010011 12
b11111001000000000111001101010000 15
016
b11111001000010000111110000100100 1a
#257
b11111110000001010000110011100011 e
b11111110000001010000110011100011 12
b11111001000000000111001101010100 15
116
b00000000000000000000000000000000 1a
#258
b00000000000001000010010100000011 e
b00000000000001000010010100000011 12
b11111001000000000111001101001000 15
016
b11111000000000010100000000000000 1a
#259
b00000000000001000000010100010011 e
b00000000000001000000010100010011 12
b11111001000000000111001101001100 15
116
#260
b11111000110111111111000011101111 e
b11111000110111111111000011101111 12
b11111001000000000111001101010000 15
b00000000000000000000000000000000 1a
#261
b11111110000001010000110011100011 e
b11111110000001010000110011100011 12
b11111001000000000111001011011000 15
016
#262
b00000000010001010010010100000011 e
b00000000010001010010010100000011 12
116
b11111000000000010100000000000100 1a
#268
b11111001000000000111001011011100 15
#269
b00000001000001010101010100010011 e
b00000001000001010101010100010011 12
b11111001000000000111001011100000 15
b00000000000000000000000000000000 1a
#270
b00000000000000001000000001100111 e
b00000000000000001000000001100111 12
b11111001000000000111001011100100 15
#271
b11111111000000010000000100010011 e
b11111111000000010000000100010011 12
b11111001000000000111001101010000 15
016
b11111001000010000111110000100100 1a
#272
b11111110000001010000110011100011 e
b11111110000001010000110011100011 12
b11111001000000000111001101010100 15
116
b00000000000000000000000000000000 1a
#273
b00000000000001000010010100000011 e
b00000000000001000010010100000011 12
b11111001000000000111001101001000 15
016
b11111000000000010100000000000000 1a
#274
b00000000000001000000010100010011 e
b00000000000001000000010100010011 12
b11111001000000000111001101001100 15
116
#275
b11111000110111111111000011101111 e
b11111000110111111111000011101111 12
b11111001000000000111001101010000 15
b00000000000000000000000000000000 1a
#276
b11111110000001010000110011100011 e
b11111110000001010000110011100011 12
b11111001000000000111001011011000 15
016
#277
b00000000010001010010010100000011 e
b00000000010001010010010100000011 12
116
b11111000000000010100000000000100 1a
#283
b11111001000000000111001011011100 15
#284
b00000001000001010101010100010011 e
b00000001000001010101010100010011 12
b11111001000000000111001011100000 15
b00000000000000000000000000000000 1a
#285
b00000000000000001000000001100111 e
b00000000000000001000000001100111 12
b11111001000000000111001011100100 15
#286
b11111111000000010000000100010011 e
b11111111000000010000000100010011 12
b11111001000000000111001101010000 15
016
b11111001000010000111110000100100 1a
#287
b11111110000001010000110011100011 e
b11111110000001010000110011100011 12
b11111001000000000111001101010100 15
116
b00000000000000000000000000000000 1a
#288
b00000000000001000010010100000011 e
b00000000000001000010010100000011 12
b11111000000000010100000000000000 1a
#294
b11111001000000000111001101011000 15
#295
b00001111111101010111010100010011 e
b00001111111101010111010100010011 12
b11111001000000000111001101011100 15
b00000000000000000000000000000000 1a
